{
	"dewarpConfigArray" :[
		{
			"source_image":{
				"width"  : 2592,
				"height" : 1944
			},
			
			"?dewarpType": "LENS_CORRECTION, FISHEYE_EXPAND, SPLIT_SCREEN",
			"dewarpType": "LENS_CORRECTION",

			"scale": {
				"roix"   : 0,
				"roiy"   : 0,
				"factor" : 1.0
			},

			"split": {
				"horizon_line"      : 972,
				"vertical_line_up"  : 1296,
				"vertical_line_down": 1296
			},

			"bypass" : false,
			"hflip"  : false,
			"vflip"  : false,

			"camera_matrix"   : [ 2661.09286, 0.0, 1305.28215, 0.0, 2641.54087, 982.51223, 0.0, 0.0, 1.0],
			"distortion_coeff": [ -0.12215, 0.16940, -0.00031, 0.00027, 0.0, 0.0, 0.0, 0.0],
			"perspective"     : [ 1.0, 0, 0,   0, 1, 0,   0, 0, 1]

		}
	]

}
